module gitlab.com/lear4212225/gateaway

go 1.19

require (
	github.com/Masterminds/squirrel v1.5.4
	github.com/go-chi/chi/v5 v5.0.7
	github.com/go-chi/cors v1.2.1
	github.com/go-sql-driver/mysql v1.7.1
	github.com/go-telegram-bot-api/telegram-bot-api/v5 v5.5.1
	github.com/golang-jwt/jwt/v4 v4.4.2
	github.com/google/uuid v1.3.0
	github.com/jmoiron/sqlx v1.3.5
	github.com/joho/godotenv v1.4.0
	github.com/json-iterator/go v1.1.12
	github.com/lib/pq v1.10.9
	github.com/ptflp/godecoder v0.0.1
	github.com/rabbitmq/amqp091-go v1.8.1
	github.com/redis/go-redis/v9 v9.0.5
	github.com/valyala/quicktemplate v1.7.0
	github.com/volatiletech/null/v8 v8.1.2
	go.mongodb.org/mongo-driver v1.12.1
	go.uber.org/zap v1.21.0
	golang.org/x/crypto v0.0.0-20220622213112-05595931fe9d
	golang.org/x/sync v0.0.0-20220722155255-886fb9371eb4
	google.golang.org/grpc v1.56.0
	google.golang.org/protobuf v1.30.0
)

require (
	github.com/cespare/xxhash/v2 v2.2.0 // indirect
	github.com/dgryski/go-rendezvous v0.0.0-20200823014737-9f7001d12a5f // indirect
	github.com/friendsofgo/errors v0.9.2 // indirect
	github.com/gofrs/uuid v3.2.0+incompatible // indirect
	github.com/golang/protobuf v1.5.3 // indirect
	github.com/golang/snappy v0.0.3 // indirect
	github.com/klauspost/compress v1.13.6 // indirect
	github.com/lann/builder v0.0.0-20180802200727-47ae307949d0 // indirect
	github.com/lann/ps v0.0.0-20150810152359-62de8c46ede0 // indirect
	github.com/modern-go/concurrent v0.0.0-20180306012644-bacd9c7ef1dd // indirect
	github.com/modern-go/reflect2 v1.0.2 // indirect
	github.com/montanaflynn/stats v0.0.0-20171201202039-1bf9dbcd8cbe // indirect
	github.com/pkg/errors v0.9.1 // indirect
	github.com/valyala/bytebufferpool v1.0.0 // indirect
	github.com/volatiletech/inflect v0.0.1 // indirect
	github.com/volatiletech/randomize v0.0.1 // indirect
	github.com/volatiletech/strmangle v0.0.1 // indirect
	github.com/xdg-go/pbkdf2 v1.0.0 // indirect
	github.com/xdg-go/scram v1.1.2 // indirect
	github.com/xdg-go/stringprep v1.0.4 // indirect
	github.com/youmark/pkcs8 v0.0.0-20181117223130-1be2e3e5546d // indirect
	go.uber.org/atomic v1.7.0 // indirect
	go.uber.org/multierr v1.6.0 // indirect
	golang.org/x/net v0.9.0 // indirect
	golang.org/x/sys v0.7.0 // indirect
	golang.org/x/text v0.9.0 // indirect
	golang.org/x/xerrors v0.0.0-20200804184101-5ec99f83aff1 // indirect
	google.golang.org/genproto v0.0.0-20230410155749-daa745c078e1 // indirect
	gopkg.in/yaml.v2 v2.4.0 // indirect
)
